alembic==0.9.3
bleach==2.0.0
blinker==1.4
certifi==2017.7.27.1
chardet==3.0.4
click==6.7
coverage==4.4.1
dominate==2.3.1
Faker==0.7.18
Flask==0.12.2
Flask-Bootstrap==3.3.7.1
Flask-HTTPAuth==3.2.3
Flask-Login==0.4.0
Flask-Mail==0.9.1
Flask-Migrate==2.0.4
Flask-Moment==0.5.1
Flask-PageDown==0.2.2
Flask-Script==2.0.6
Flask-SQLAlchemy==2.2
Flask-SSLify==0.1.5
Flask-WTF==0.14.2
gunicorn==19.7.1
html5lib==0.999999999
httpie==0.9.9
idna==2.5
itsdangerous==0.24
Jinja2==2.9.6
Mako==1.0.7
Markdown==2.6.8
MarkupSafe==1.1.1
psycopg2==2.7.3
Pygments==2.2.0
python-dateutil==2.6.1
python-dotenv==0.6.5
python-editor==1.0.3
requests==2.18.2
selenium==3.4.3
six==1.10.0
SQLAlchemy==1.1.11
urllib3==1.22
visitor==0.1.3
webencodings==0.5.1
Werkzeug==0.12.2
WTForms==2.1
